560.236,7.623,73.4929,84.07,6.66392,2.105,266.145,11.379,49.2342,1.701,329.357,10.832,51.7205
520.427,7.621,68.2885,81.681,6.37146,2.107,246.999,11.34,45.893,1.689,308.127,10.676,48.7474
531.059,7.611,69.7752,82.301,6.45264,2.097,253.247,11.396,46.6005,1.693,313.679,10.697,49.6456
517.688,7.618,67.9559,86.861,5.95996,2.113,245.001,11.525,44.9187,1.702,304.165,10.853,47.7
533.817,7.619,70.0639,81.933,6.51529,2.12,251.8,11.465,46.5606,1.697,314.565,10.834,49.2724
523.076,7.611,68.7263,81.706,6.40193,2.108,248.139,11.333,46.1551,1.7,307.692,10.691,48.9268
518.583,7.604,68.1987,82.278,6.30281,2.124,244.154,11.341,45.7264,1.691,306.672,10.677,48.5701
518.759,7.631,67.9805,82.637,6.27756,2.113,245.508,11.401,45.5012,1.701,304.973,10.866,47.7415
532.255,7.616,69.8864,83.539,6.37134,2.11,252.254,11.388,46.7382,1.702,312.723,10.816,49.21
539.04,7.611,70.8238,82.335,6.54691,2.121,254.144,11.403,47.2718,1.705,316.152,10.854,49.6628
536.112,7.615,70.4021,85.008,6.30661,2.107,254.443,11.36,47.193,1.698,315.731,10.791,49.6814
532.074,7.614,69.881,82.138,6.47781,2.097,253.731,11.367,46.8087,1.704,312.25,10.768,49.4125
517.39,7.601,68.0687,82.002,6.30948,2.112,244.976,11.505,44.9709,1.698,304.706,10.809,47.8666
518.373,7.628,67.9566,84.073,6.16575,2.108,245.907,11.319,45.7967,1.695,305.825,10.712,48.3918
535.767,7.63,70.2185,88.711,6.03947,2.127,251.889,11.423,46.9025,1.691,316.834,10.767,49.7601
534.012,7.618,70.0987,82.315,6.48742,2.124,251.418,11.397,46.8555,1.699,314.31,10.677,50.0152
538.657,7.629,70.6065,82.093,6.56155,2.305,233.691,11.655,46.2168,1.834,293.706,10.974,49.0848
547.571,8.258,66.3079,85.006,6.44156,2.321,235.92,11.826,46.3023,1.834,298.567,10.928,50.1072
531.975,8.249,64.4896,83.559,6.36646,2.301,231.193,11.732,45.3439,1.786,297.858,12.478,42.633
619.944,8.255,75.0992,83.136,7.45699,2.313,268.026,11.661,53.1639,1.831,338.582,10.963,56.5488
519.524,8.289,62.6763,89.51,5.80409,2.285,227.363,11.703,44.3924,1.837,282.811,11.039,47.0626
519.614,8.279,62.7629,89.564,5.80159,2.312,224.747,11.647,44.6135,1.837,282.86,11.027,47.122
521.547,8.266,63.0955,83.302,6.26092,2.314,225.388,11.642,44.7987,1.829,285.154,10.963,47.5734
519.543,8.265,62.8606,85.784,6.05641,2.319,224.038,11.638,44.6419,1.828,284.214,10.918,47.5859
518.844,8.282,62.6472,83.603,6.20605,2.314,224.22,11.653,44.5245,1.838,282.287,11.028,47.0479
530.312,8.271,64.117,83.931,6.31843,2.31,229.572,11.714,45.2716,1.84,288.213,11.078,47.8707
533.149,8.269,64.4756,83.815,6.36102,2.312,230.601,11.67,45.6854,1.74,306.407,11.004,48.4505
527.57,8.268,63.8087,86.06,6.13026,2.301,229.279,11.611,45.4371,1.742,302.853,11.013,47.9043
519.123,8.268,62.787,83.545,6.21369,2.312,224.534,11.78,44.0682,1.837,282.593,11.022,47.0988
520.521,8.267,62.9637,83.165,6.25889,2.312,225.139,11.69,44.527,1.834,283.817,10.91,47.7104
