1532.57,25.289,60.602,124.756,12.2845,5.523,277.488,14.869,103.071,4.887,313.6,14.083,108.824
1540.41,25.229,61.0571,108.191,14.2379,5.503,279.922,14.856,103.689,4.89,315.012,13.969,110.273
1568.81,25.204,62.2446,101.405,15.4708,5.506,284.928,14.782,106.13,4.866,322.403,13.992,112.122
1568.76,25.35,61.8841,107.835,14.5478,5.497,285.385,14.87,105.498,4.883,321.27,14.007,111.998
1535.07,25.234,60.8332,101.129,15.1793,5.496,279.306,14.823,103.56,4.884,314.305,14.023,109.468
1533.1,25.275,60.6568,102.031,15.0258,5.505,278.492,14.819,103.455,4.884,313.903,14.061,109.032
1575.67,25.29,62.304,108.688,14.4972,5.49,287.007,14.862,106.02,4.887,322.42,13.98,112.709
1565.85,25.345,61.7814,105.389,14.8578,5.525,283.412,14.78,105.944,4.884,320.608,13.905,112.611
1564.26,25.23,61.9999,101.922,15.3476,5.485,285.188,14.762,105.965,4.884,320.282,14.041,111.406
1642.69,25.352,64.7953,103.136,15.9274,5.538,296.622,14.879,110.403,4.893,335.723,13.941,117.832
1543.39,25.259,61.1027,101.167,15.2559,5.469,282.208,14.772,104.481,4.885,315.946,13.953,110.614
1530.29,25.274,60.5482,103.56,14.7769,5.504,278.033,14.82,103.259,4.882,313.456,13.985,109.424
1647.12,25.31,65.078,107.299,15.3508,5.521,298.338,14.877,110.716,4.899,336.216,14.045,117.275
1562.24,25.261,61.8441,134.566,11.6095,5.542,281.892,14.908,104.792,4.879,320.197,14.19,110.095
1606.41,25.388,63.2743,106.24,15.1205,5.517,291.174,14.859,108.11,4.775,336.42,14.51,110.71
1565.28,25.343,61.7639,105.765,14.7996,5.5,284.597,14.885,105.158,4.883,320.558,14.092,111.076
1569.53,25.274,62.1006,110.422,14.2139,5.509,284.903,14.876,105.508,4.889,321.033,13.96,112.431
1683.22,25.338,66.4306,104.738,16.0707,5.516,305.152,15.009,112.147,4.886,344.498,14.114,119.259
1559.6,25.257,61.7492,101.724,15.3317,5.493,283.925,14.823,105.215,4.881,319.524,13.974,111.607
1601.99,25.261,63.4176,104.369,15.3493,5.508,290.848,14.948,107.171,4.891,327.539,14.147,113.239
1642.51,25.209,65.1557,106.908,15.3638,5.58,294.357,14.987,109.596,4.881,336.511,14.068,116.755
1746.41,25.234,69.2087,102.282,17.0745,5.491,318.05,14.885,117.327,4.884,357.578,14.08,124.035
1811.86,25.245,71.7712,103.458,17.513,5.554,326.227,14.951,121.187,4.884,370.98,14.081,128.674
1553.96,25.202,61.6601,104.167,14.9179,5.49,283.052,14.833,104.764,4.875,318.761,14.063,110.5
1548.86,25.294,61.2344,104.502,14.8214,5.512,280.998,14.927,103.763,4.886,317,14.071,110.075
1671.33,25.34,65.9562,102.9,16.2423,5.541,301.629,14.907,112.117,4.888,341.925,13.962,119.706
1609.53,25.198,63.8752,111.415,14.4462,5.501,292.588,14.881,108.16,4.795,335.668,13.987,115.073
1649.82,25.256,65.3237,106.033,15.5595,5.501,299.912,14.849,111.106,4.897,336.903,14.314,115.259
1781.87,25.183,70.7567,103.425,17.2286,5.504,323.74,15.395,115.743,4.879,365.212,14.037,126.941
1689.38,25.271,66.8503,101.641,16.621,5.511,306.546,14.844,113.809,4.895,345.123,14.115,119.687
