7.156,0.214,33.4393,84.11,0.0850791,0.066,108.424,0.322,22.2236,0.078,91.7436,0.298,24.0134
7.328,0.215,34.0837,62.303,0.117619,0.066,111.03,0.399,18.3659,0.079,92.7595,0.373,19.6461
10.714,0.215,49.8326,65.717,0.163032,0.069,155.275,0.334,32.0778,0.074,144.784,0.326,32.865
13.684,0.216,63.3519,68.823,0.198829,0.066,207.333,0.332,41.2169,0.079,173.215,0.316,43.3038
7.535,0.213,35.3756,66.753,0.112879,0.066,114.167,0.383,19.6736,0.079,95.3797,0.317,23.7697
7.351,0.216,34.0324,62.214,0.118157,0.066,111.379,0.335,21.9433,0.079,93.0506,0.315,23.3365
7.178,0.216,33.2315,64.635,0.111054,0.066,108.758,0.335,21.4269,0.078,92.0256,0.308,23.3052
13.687,0.213,64.2582,69.308,0.197481,0.067,204.284,0.336,40.7351,0.082,166.915,0.315,43.4508
10.649,0.214,49.7617,68.387,0.155717,0.067,158.94,0.331,32.1722,0.078,136.526,0.308,34.5747
7.225,0.213,33.9202,60.909,0.11862,0.067,107.836,0.34,21.25,0.078,92.6282,0.316,22.8639
11.976,0.213,56.2254,68.013,0.176084,0.067,178.746,0.324,36.963,0.08,149.7,0.372,32.1935
7.387,0.212,34.8443,61.806,0.119519,0.066,111.924,0.331,22.3172,0.078,94.7051,0.309,23.9061
7.803,0.213,36.6338,62.014,0.125826,0.068,114.75,0.381,20.4803,0.081,96.3333,0.312,25.0096
7.218,0.213,33.8873,61.349,0.117655,0.066,109.364,0.332,21.741,0.078,92.5385,0.312,23.1346
13.807,0.216,63.9213,68.558,0.201392,0.066,209.197,0.336,41.0923,0.079,174.772,0.312,44.2532
13.713,0.215,63.7814,70.221,0.195283,0.067,204.672,0.407,33.6929,0.079,173.582,0.343,39.9796
8.375,0.227,36.8943,62.221,0.134601,0.067,125,0.346,24.2052,0.078,107.372,0.315,26.5873
13.689,0.214,63.9673,69.769,0.196205,0.066,207.409,0.323,42.3808,0.079,173.278,0.306,44.7353
11.523,0.219,52.6164,66.145,0.174208,0.067,171.985,0.339,33.9912,0.078,147.731,0.308,37.4123
19.171,0.214,89.5841,67.482,0.284091,0.066,290.47,0.327,58.6269,0.08,239.637,0.315,60.8603
13.769,0.215,64.0419,68.687,0.20046,0.068,202.485,0.351,39.2279,0.079,174.291,0.32,43.0281
7.226,0.213,33.9249,61.296,0.117887,0.066,109.485,0.327,22.0979,0.078,92.641,0.309,23.3851
13.081,0.214,61.1262,68.258,0.191641,0.066,198.197,0.362,36.1354,0.078,167.705,0.305,42.8885
7.349,0.219,33.5571,62.079,0.118381,0.067,109.687,0.349,21.0573,0.08,91.8625,0.314,23.4045
12.173,0.213,57.1502,62.547,0.194622,0.067,181.687,0.327,37.2263,0.075,162.307,0.301,40.4419
7.406,0.213,34.77,66.462,0.111432,0.067,110.537,0.337,21.9763,0.079,93.7468,0.316,23.4367
7.177,0.214,33.5374,62.717,0.114435,0.067,107.119,0.332,21.6175,0.078,92.0128,0.308,23.3019
7.546,0.212,35.5943,61.282,0.123136,0.066,114.333,0.378,19.963,0.078,96.7436,0.303,24.9043
16.939,0.216,78.4213,69.312,0.244388,0.067,252.821,0.336,50.4137,0.078,217.167,0.313,54.1182
7.219,0.214,33.7336,67.516,0.106923,0.065,111.062,0.331,21.8097,0.078,92.5513,0.31,23.2871
